…
In this context of R package development help at least, email is not
dead!

Who?
----

As mentioned earlier, the oldest email was send on 2015-05-22 10:56:21
(`min(emails$datetime)`). Even without cleaning email addresses too
much, it’s clear that there are some super-posters around,

``` r
dplyr::count(emails, author, sort = TRUE)
```

    ## # A tibble: 670 x 2
    ##    author                                                           n
    ##    <chr>                                                        <int>
    ##  1 edd at debian.org (Dirk Eddelbuettel)                          270
    ##  2 murdoch.duncan at gmail.com (Duncan Murdoch)                   234
    ##  3 ligges at statistik.tu-dortmund.de (Uwe Ligges)                185
    ##  4 murdoch@dunc@n @ending from gm@il@com (Duncan Murdoch)          68
    ##  5 h.wickham at gmail.com (Hadley Wickham)                         60
    ##  6 ligge@ @ending from @t@ti@tik@tu-dortmund@de (Uwe Ligges)       46
    ##  7 edd @ending from debi@n@org (Dirk Eddelbuettel)                 45
    ##  8 glennmschultz at me.com (Glenn Schultz)                         43
    ##  9 csardi.gabor at gmail.com (=?UTF-8?B?R8OhYm9yIENzw6FyZGk=?=)    42
    ## 10 i.ucar86 at gmail.com (=?UTF-8?B?ScOxYWtpIMOaY2Fy?=)            42
    ## # … with 660 more rows
…
What are the most mentioned URL domains?

``` r
urls <- unlist(qdapRegex::rm_url(emails$content, extract = TRUE))
urls <- urls[!is.na(urls)]
urls <- urltools::url_parse(urls)
dplyr::count(urls, domain, sort = TRUE)
```

    ## # A tibble: 364 x 2
    ##    domain                        n
    ##    <chr>                     <int>
    ##  1 github.com                  437
    ##  2 cran.r-project.org          321
    ##  3 stat.ethz.ch                238
    ##  4 win-builder.r-project.org   158
    ##  5 stackoverflow.com            38
    ##  6 www.pfeg.noaa.gov            38
    ##  7 dirk.eddelbuettel.com        36
    ##  8 www.r-project.org            36
    ##  9 www.keittlab.org             25
    ## 10 hughparsonage.github.io      22
    ## # … with 354 more rows
…
